Inductors values
1,8.2,-5
2,1.5,-4
3,1.2,-4
4,1.5,-4
5,8.2,-5
Lw1=82u Lw2=150u Lw3=120u Lw4=150u Lw5=82u 
Capacitors values
1,3.3,-8
2,1.6,-8
3,2.4,-8
4,1.6,-8
5,3.3,-8
Cw1=33n Cw2=16n Cw3=24n Cw4=16n Cw5=33n 
