Inductors values
1,3.3,-6
2,1.5,-4
3,4.7,-6
4,1.5,-4
5,3.3,-6
Lw1=3.3u Lw2=150u Lw3=4.7u Lw4=150u Lw5=3.3u 
Capacitors values
1,3.3,-8
2,6.2,-10
3,2.4,-8
4,6.2,-10
5,3.3,-8
Cw1=33n Cw2=0.62n Cw3=24n Cw4=0.62n Cw5=33n 
